[
  {
    "name": "Samsung Galaxy A24",
    "price": "9999",
    "img": "./45.png",
    "gif": "./784.gif",
    "article": 328132324,
    "color": "black",
    "id": 1
  },
  {
    "name": "Apple iPhone 15",
    "price": "42499",
    "img": "./48.png",
    "gif": "./46.gif",
    "article": 327838727,
    "color": "black",
    "id": 2
  },
  {
    "name": "Samsung Galaxy S23",
    "price": "35999",
    "img": "./49.png",
    "gif": "./784.gif",
    "article": 412578945,
    "color": "Phantom black",
    "id": 3
  },
  {
    "name": "Realme C53",
    "price": "5700",
    "img": "./50.png",
    "gif": "./51.gif",
    "article": 547012359,
    "color": "black",
    "id": 4
  },
  {
    "name": "Samsung Galaxy Fold",
    "price": "79000",
    "img": "./52.png",
    "gif": "./784.gif",
    "article": 786123569,
    "color": "light blue",
    "id": 5
  },
  {
    "name": "Xiaomi Redmi Note 12 Pro",
    "price": "9000",
    "img": "./53.png",
    "gif": "./54.gif",
    "article": 451278458,
    "color": "Graphite Gray",
    "id": 6
  },
  {
    "name": "Motorola Razr 40",
    "price": "28000",
    "img": "./57.png",
    "gif": "./55.gif",
    "article": 631598568,
    "color": "purple",
    "id": 7
  },
  {
    "name": "Nokia C22",
    "price": "3560",
    "img": "../../58.png",
    "gif": "./60.gif",
    "article": 874215987,
    "color": "Sand",
    "id": 8
},
  {
    "name": "Apple iPhone 14 Pro Max",
    "price": "57500",
    "img": "./61.png",
    "gif": "./46.gif",
    "article": 548213658,
    "color": "Deep purple",
    "id": 9
  },
  {
    "name": "Ulefone Power Armor 18T ",
    "price": "19000",
    "img": "./63.png",
    "gif": "./62.gif",
    "article": 612435785,
    "color": "black",
    "id": 10
  }
]